{
    "/api": {
        "target": "https://frontend-tech-test-data.s3.eu-west-1.amazonaws.com/items.json",
        "secure": false,
        "logLevel": "info",
        "pathRewrite": {
         "^/api": ""
        },
        "changeOrigin": true
    }
}